%YAML 1.1
%TAG !u! tag:unity3d.com,2011:
--- !u!114 &11400000
MonoBehaviour:
  m_ObjectHideFlags: 0
  m_PrefabParentObject: {fileID: 0}
  m_PrefabInternal: {fileID: 0}
  m_GameObject: {fileID: 0}
  m_Enabled: 1
  m_EditorHideFlags: 0
  m_Script: {fileID: 11500000, guid: e68510dfd124a2d4e956b3a11334b711, type: 3}
  m_Name: Corrosive
  m_EditorClassIdentifier: 
  elementType: Corrosive
  elementalParticle: {fileID: 2800000, guid: f22374b1a3550a6448bc9838b8810201, type: 3}
  particleMat: {fileID: 0}
  shipSprite: {fileID: 21300000, guid: 5cb412fa48b218e4e8bac0721b9e642a, type: 3}
  shieldSprite: {fileID: 21300000, guid: bca50def455aa9245ada89a4b3460508, type: 3}
  shootRange: 0
  shotDamage: 10
  pickupSprite: {fileID: 21300000, guid: e44882a9acc512a4da0c654303784f58, type: 3}
  playerSprite: {fileID: 21300000, guid: c86f62eef7ae4c44791c8b470c22423e, type: 3}
  playerShieldSprite: {fileID: 21300000, guid: 83aba0c13c2c17645bdbbf4a42e84a84, type: 3}
  moveSpeed: 5
