%YAML 1.1
%TAG !u! tag:unity3d.com,2011:
--- !u!114 &11400000
MonoBehaviour:
  m_ObjectHideFlags: 0
  m_PrefabParentObject: {fileID: 0}
  m_PrefabInternal: {fileID: 0}
  m_GameObject: {fileID: 0}
  m_Enabled: 1
  m_EditorHideFlags: 0
  m_Script: {fileID: 11500000, guid: e68510dfd124a2d4e956b3a11334b711, type: 3}
  m_Name: Thermal
  m_EditorClassIdentifier: 
  elementType: Thermal
  elementalParticle: {fileID: 2800000, guid: 44c18b925a68d07449b777886fc3f06e, type: 3}
  particleMat: {fileID: 0}
  shipSprite: {fileID: 21300000, guid: d3d9d3ed76656cb4f8778fd92221240e, type: 3}
  shieldSprite: {fileID: 21300000, guid: be67e1e0036052c41b0e36012f4e673d, type: 3}
  shootRange: 0
  shotDamage: 20
  pickupSprite: {fileID: 21300000, guid: 8cf1fd981aeb9aa4283d05be7efc79d8, type: 3}
  playerSprite: {fileID: 21300000, guid: 3bcc21d5699d9654dbfc65f6b5583280, type: 3}
  playerShieldSprite: {fileID: 21300000, guid: c91851ae66d61ed4dbea3cca159d00e1, type: 3}
  moveSpeed: 10
